{
    "key": "group_5f8a0cae34d4e",
    "title": "Gift Guide Attributes",
    "fields": [
        {
            "key": "field_5f9b223a47af3",
            "label": "Video Source",
            "name": "video_source",
            "type": "text",
            "instructions": "Enter the mp4 video source for the standard window display. Tier One Dimensions 576x576.",
            "required": 0,
            "conditional_logic": 0,
            "wrapper": {
                "width": "50",
                "class": "",
                "id": ""
            },
            "default_value": "",
            "placeholder": "",
            "prepend": "",
            "append": "",
            "maxlength": ""
        },
        {
            "key": "field_5f9b2598b9bf5",
            "label": "Lobby Window Video Source",
            "name": "lobby_video_source",
            "type": "file",
            "instructions": "",
            "required": 0,
            "conditional_logic": 0,
            "wrapper": {
                "width": "50",
                "class": "",
                "id": ""
            },
            "return_format": "url",
            "library": "all",
            "min_size": "",
            "max_size": "",
            "mime_types": ""
        },
        {
            "key": "field_5f9111ba8a449",
            "label": "Related Merchants",
            "name": "related_merchants",
            "type": "relationship",
            "instructions": "Set related merchants.",
            "required": 0,
            "conditional_logic": 0,
            "wrapper": {
                "width": "",
                "class": "",
                "id": ""
            },
            "post_type": [
                "merchant"
            ],
            "taxonomy": "",
            "filters": [
                "search",
                "taxonomy"
            ],
            "elements": [
                "featured_image"
            ],
            "min": "",
            "max": "",
            "return_format": "id"
        },
        {
            "key": "field_5f9cb8cc2e888",
            "label": "Related Gift Guides",
            "name": "related_gift_guides",
            "type": "relationship",
            "instructions": "",
            "required": 0,
            "conditional_logic": 0,
            "wrapper": {
                "width": "",
                "class": "",
                "id": ""
            },
            "post_type": [
                "gift-guide"
            ],
            "taxonomy": "",
            "filters": [
                "search",
                "taxonomy"
            ],
            "elements": [
                "featured_image"
            ],
            "min": "",
            "max": "",
            "return_format": "id"
        }
    ],
    "location": [
        [
            {
                "param": "post_type",
                "operator": "==",
                "value": "gift-guide"
            }
        ]
    ],
    "menu_order": 0,
    "position": "normal",
    "style": "default",
    "label_placement": "top",
    "instruction_placement": "label",
    "hide_on_screen": "",
    "active": 1,
    "description": "Gift Guide Custom Post Type",
    "modified": 1604106495
}